%YAML 1.1
%TAG !u! tag:unity3d.com,2011:
--- !u!114 &11400000
MonoBehaviour:
  m_ObjectHideFlags: 0
  m_CorrespondingSourceObject: {fileID: 0}
  m_PrefabInstance: {fileID: 0}
  m_PrefabAsset: {fileID: 0}
  m_GameObject: {fileID: 0}
  m_Enabled: 1
  m_EditorHideFlags: 0
  m_Script: {fileID: 11500000, guid: 0a9d61a6006a0b643bb5b844f6349de6, type: 3}
  m_Name: PlayerFacing
  m_EditorClassIdentifier: 
  Value: 0
  Description: "Indica hacia que direcci\xF3n est\xE1 apuntando el jugador.\n\n-1
    = Izquierda.\n1 = Derecha.\n0 = Arriba"
