%YAML 1.1
%TAG !u! tag:unity3d.com,2011:
--- !u!114 &11400000
MonoBehaviour:
  m_ObjectHideFlags: 0
  m_CorrespondingSourceObject: {fileID: 0}
  m_PrefabInstance: {fileID: 0}
  m_PrefabAsset: {fileID: 0}
  m_GameObject: {fileID: 0}
  m_Enabled: 1
  m_EditorHideFlags: 0
  m_Script: {fileID: 11500000, guid: e47c0b452d820ee42ad46fd66642bfda, type: 3}
  m_Name: Wave 04x03
  m_EditorClassIdentifier: 
  Time:
    UseVariable: 1
    ConstantValue: 0
    Variable: {fileID: 11400000, guid: 39579436802a2414c971b72e3cdbcf51, type: 2}
  MaxEnemyInScreen:
    UseVariable: 1
    ConstantValue: 0
    Variable: {fileID: 11400000, guid: 20566e142550fdb429d575afc0758196, type: 2}
  EnemyFrequency:
    UseVariable: 1
    ConstantValue: 0
    Variable: {fileID: 11400000, guid: 4fa6ec8c559a6c64e97a7eb41b18f9fa, type: 2}
  EnemyVelocityFactor:
    UseVariable: 1
    ConstantValue: 0
    Variable: {fileID: 11400000, guid: d8b86ffcd1f9af84eae0368f386f973c, type: 2}
