%YAML 1.1
%TAG !u! tag:unity3d.com,2011:
--- !u!114 &11400000
MonoBehaviour:
  m_ObjectHideFlags: 0
  m_CorrespondingSourceObject: {fileID: 0}
  m_PrefabInstance: {fileID: 0}
  m_PrefabAsset: {fileID: 0}
  m_GameObject: {fileID: 0}
  m_Enabled: 1
  m_EditorHideFlags: 0
  m_Script: {fileID: 11500000, guid: e47c0b452d820ee42ad46fd66642bfda, type: 3}
  m_Name: Wave 02x04
  m_EditorClassIdentifier: 
  Time:
    UseVariable: 1
    ConstantValue: 0
    Variable: {fileID: 11400000, guid: db76e26e3231a89409e871e6ce5c0a57, type: 2}
  MaxEnemyInScreen:
    UseVariable: 1
    ConstantValue: 0
    Variable: {fileID: 11400000, guid: f6406ab953e85564cbf255d3ec4a6b90, type: 2}
  EnemyFrequency:
    UseVariable: 1
    ConstantValue: 0
    Variable: {fileID: 11400000, guid: 0d7ad1be8e51474438a3fc0fe9f2b698, type: 2}
  EnemyVelocityFactor:
    UseVariable: 1
    ConstantValue: 0
    Variable: {fileID: 11400000, guid: 2bdfe7f1d7386414f91e897293252092, type: 2}
