%YAML 1.1
%TAG !u! tag:unity3d.com,2011:
--- !u!114 &11400000
MonoBehaviour:
  m_ObjectHideFlags: 0
  m_CorrespondingSourceObject: {fileID: 0}
  m_PrefabInstance: {fileID: 0}
  m_PrefabAsset: {fileID: 0}
  m_GameObject: {fileID: 0}
  m_Enabled: 1
  m_EditorHideFlags: 0
  m_Script: {fileID: 11500000, guid: e47c0b452d820ee42ad46fd66642bfda, type: 3}
  m_Name: Wave 01x02
  m_EditorClassIdentifier: 
  Time:
    UseVariable: 1
    ConstantValue: 0
    Variable: {fileID: 11400000, guid: 3d014dc3a29315549abda448302c3885, type: 2}
  MaxEnemyInScreen:
    UseVariable: 1
    ConstantValue: 0
    Variable: {fileID: 11400000, guid: f9a55ab6d997e594689c630e3df56f0f, type: 2}
  EnemyFrequency:
    UseVariable: 1
    ConstantValue: 0
    Variable: {fileID: 11400000, guid: a7cf22e47585fed4fb2050a7c165215c, type: 2}
  EnemyVelocityFactor:
    UseVariable: 1
    ConstantValue: 0
    Variable: {fileID: 11400000, guid: 2bf3a5f1d237a99469cbd086b03f976c, type: 2}
