%YAML 1.1
%TAG !u! tag:unity3d.com,2011:
--- !u!114 &11400000
MonoBehaviour:
  m_ObjectHideFlags: 0
  m_CorrespondingSourceObject: {fileID: 0}
  m_PrefabInstance: {fileID: 0}
  m_PrefabAsset: {fileID: 0}
  m_GameObject: {fileID: 0}
  m_Enabled: 1
  m_EditorHideFlags: 0
  m_Script: {fileID: 11500000, guid: e47c0b452d820ee42ad46fd66642bfda, type: 3}
  m_Name: Wave 03x01
  m_EditorClassIdentifier: 
  Time:
    UseVariable: 1
    ConstantValue: 0
    Variable: {fileID: 11400000, guid: 75598249618ff8b4387af7772ac02b3e, type: 2}
  MaxEnemyInScreen:
    UseVariable: 1
    ConstantValue: 0
    Variable: {fileID: 11400000, guid: a980e7d9850b0f34cbbf86089852b059, type: 2}
  EnemyFrequency:
    UseVariable: 1
    ConstantValue: 0
    Variable: {fileID: 11400000, guid: 986b07f2073be24479e4eb88dc0d0961, type: 2}
  EnemyVelocityFactor:
    UseVariable: 1
    ConstantValue: 0
    Variable: {fileID: 11400000, guid: ff7b1054018b45d4f9b2618f0aad5ada, type: 2}
