%YAML 1.1
%TAG !u! tag:unity3d.com,2011:
--- !u!114 &11400000
MonoBehaviour:
  m_ObjectHideFlags: 0
  m_CorrespondingSourceObject: {fileID: 0}
  m_PrefabInstance: {fileID: 0}
  m_PrefabAsset: {fileID: 0}
  m_GameObject: {fileID: 0}
  m_Enabled: 1
  m_EditorHideFlags: 0
  m_Script: {fileID: 11500000, guid: 359cd1bf8552ca04c83e80c02d8f21a0, type: 3}
  m_Name: Level 03
  m_EditorClassIdentifier: 
  Waves:
  - {fileID: 11400000, guid: 88868091db19dc24783d001b512cf69e, type: 2}
  - {fileID: 11400000, guid: ea9dd08052967834cb56b822a20ab35b, type: 2}
  - {fileID: 11400000, guid: 1dec701d36bad0f4e87487fb22855739, type: 2}
  - {fileID: 11400000, guid: 208c0f88f87612c42ab4396fe3399203, type: 2}
  - {fileID: 11400000, guid: 1b1dc5cbc82f1874cb584b10a2c5d4aa, type: 2}
